%YAML 1.1
%TAG !u! tag:unity3d.com,2011:
--- !u!1045 &1
EditorBuildSettings:
  m_ObjectHideFlags: 0
  serializedVersion: 2
  m_Scenes:
  - enabled: 0
    path: 
    guid: 00000000000000000000000000000000
  - enabled: 0
    path: Assets/Scenes/Level02.unity
    guid: 94915168c7924374e9a900d034eae56a
  - enabled: 0
    path: Assets/Scenes/Main Scene.unity
    guid: 508225e699cb3a34187368434884f353
  - enabled: 0
    path: Assets/Scenes/DemoOver.unity
    guid: 0042702ca24b3e848a4dcfe1fce71b11
  - enabled: 1
    path: Assets/Scenes/Dialogue.unity
    guid: f7c9436175383fa458ab7f2485551895
  - enabled: 1
    path: Assets/Scenes/MadLib.unity
    guid: 1d86124dc18c32148bc197fbd2485e37
  - enabled: 1
    path: Assets/Scenes/Level03.unity
    guid: 5a10bfa413f8aaa469d04408d863b687
  m_configObjects: {}
